2015-08-31 10:29:52/2015-09-01 11:27:22
2015-08-31 18:26:50/2015-09-02 18:40:38
2015-09-01 999.88.:35/2015-09-01 11:21:59
2015-09-16 10:46:51/2015-09-16 17:14:59
2015-09-19 11:06:24/2015-09-20 19:43:22
2015-09-21 09:15:23/2015-09-22 11:51:09
2015-09-28 16:11:42/2015-09-29 11:16:29
